…
degree: highest education level attained

Instagram and Snapchat, by sex

Can we estimate the population proportion of Snapchat or Instagram users in 2016?

First, we will create a new variable, snap_insta that is Yes if the respondent reported using any of Snapchat (snapchat) or Instagram (instagrm), and No if not. If the recorded value was NA for both of these questions, the value in the new variable will also be NA.

gss_v2 <- gss %>% 
  na_if("NA") %>% 
  mutate(snap_insta=ifelse(snapchat == "NA" & instagrm == "NA", "NA", 
                      ifelse(snapchat == "Yes" | instagrm == "Yes", "Yes", "No")))
gss_v2

## # A tibble: 2,867 x 8
##    emailmin emailhr snapchat instagrm twitter sex    degree         snap_insta
##    <chr>    <chr>   <chr>    <chr>    <chr>   <chr>  <chr>          <chr>     
##  1 0        12      <NA>     <NA>     <NA>    Male   Bachelor       <NA>      
##  2 30       0       No       No       No      Male   High school    No        
##  3 <NA>     <NA>    No       No       No      Male   Bachelor       No        
##  4 10       0       <NA>     <NA>     <NA>    Female High school    <NA>      
##  5 <NA>     <NA>    Yes      Yes      No      Female Graduate       Yes       
##  6 0        2       No       Yes      No      Female Junior college Yes       
##  7 0        40      <NA>     <NA>     <NA>    Male   High school    <NA>      
##  8 <NA>     <NA>    Yes      Yes      No      Female High school    Yes       
##  9 0        0       <NA>     <NA>     <NA>    Male   High school    <NA>      
## 10 <NA>     <NA>    No       No       No      Male   Junior college No        
## # … with 2,857 more rows
…
##  Factor w/ 5 levels "Lt high school",..: 4 4 5 3 3 1 1 5 1 1 ...

Next we will create a new variable, bachelor_graduate, that is Yes if the respondent has either a Bachelor or Graduate degree. As before, if the recorded value for either was NA, the value in the new variable will also be NA.

bachelor_graduate <- gss_degree %>% 
  mutate(bachelor_graduate = ifelse(degree == "", "",
                      ifelse(degree == "Bachelor"|degree == "Graduate", "Yes", "No")))
bachelor_graduate

## # A tibble: 1,398 x 8
##    emailmin emailhr snapchat instagrm twitter sex    degree     bachelor_gradua…
##    <chr>    <chr>   <chr>    <chr>    <chr>   <chr>  <fct>      <chr>           
##  1 0        12      <NA>     <NA>     <NA>    Male   Bachelor   Yes             
##  2 <NA>     <NA>    No       No       No      Male   Bachelor   Yes             
##  3 <NA>     <NA>    Yes      Yes      No      Female Graduate   Yes             
##  4 0        2       No       Yes      No      Female Junior co… No              
##  5 <NA>     <NA>    No       No       No      Male   Junior co… No              
##  6 30       0       No       No       No      Male   Lt high s… No              
##  7 0        1       <NA>     <NA>     <NA>    Female Lt high s… No              
##  8 0        1       Yes      No       Yes     Male   Graduate   Yes             
##  9 <NA>     <NA>    No       Yes      No      Female Lt high s… No              
## 10 0        1       Yes      Yes      No      Female Lt high s… No              
## # … with 1,388 more rows
…
The two confidence intervals do not overlap.

Email usage

Can we estimate the population parameter on time spent on email weekly?

First, we will create a new variable called email that combines emailhr and emailmin to reports the number of minutes the respondents spend on email weekly.

gss_email <- gss %>%
  na_if("NA") %>%
  mutate(email = as.numeric(emailhr) * 60 + as.numeric(emailmin))
gss_email

## # A tibble: 2,867 x 8
##    emailmin emailhr snapchat instagrm twitter sex    degree         email
##    <chr>    <chr>   <chr>    <chr>    <chr>   <chr>  <chr>          <dbl>
##  1 0        12      <NA>     <NA>     <NA>    Male   Bachelor         720
##  2 30       0       No       No       No      Male   High school       30
##  3 <NA>     <NA>    No       No       No      Male   Bachelor          NA
##  4 10       0       <NA>     <NA>     <NA>    Female High school       10
##  5 <NA>     <NA>    Yes      Yes      No      Female Graduate          NA
##  6 0        2       No       Yes      No      Female Junior college   120
##  7 0        40      <NA>     <NA>     <NA>    Male   High school     2400
##  8 <NA>     <NA>    Yes      Yes      No      Female High school       NA
##  9 0        0       <NA>     <NA>     <NA>    Male   High school        0
## 10 <NA>     <NA>    No       No       No      Male   Junior college    NA
## # … with 2,857 more rows
…
